Running from: C:\Users\Bryon\AppData\Local\Temp\tmp3h10mu00 
Command: D:\models\Mwmbuilder\MwmBuilder.exe /s:Content /m:1x1PistonPart2_Constr2.fbx /o:.\ 
INFO: 
Material libraries were loaded from path:  !

PROCESSED: 
C:\Users\Bryon\AppData\Local\Temp\tmp3h10mu00\Content\1x1PistonPart2_Constr2.fbx
: Finished in 0.5s

