Running from: C:\Users\Bryon\AppData\Local\Temp\tmphzkc7vd9 
Command: D:\models\Mwmbuilder\MwmBuilder.exe /s:Content /m:1x1PistonPart3_Constr1.fbx /o:.\ 
INFO: 
Material libraries were loaded from path:  !

PROCESSED: 
C:\Users\Bryon\AppData\Local\Temp\tmphzkc7vd9\Content\1x1PistonPart3_Constr1.fbx
: Finished in 0.4s

