Running from: C:\Users\Bryon\AppData\Local\Temp\tmpi3fqxjy3 
Command: D:\models\Mwmbuilder\MwmBuilder.exe /s:Content /m:1x5PistonPart1.fbx /o:.\ 
INFO: 
Material libraries were loaded from path:  !

PROCESSED: 
C:\Users\Bryon\AppData\Local\Temp\tmpi3fqxjy3\Content\1x5PistonPart1.fbx
: Finished in 1.7s

